<?xml version="1.0" encoding="utf-8"?>
<!-- Generator: Adobe Illustrator 21.1.0, SVG Export Plug-In . SVG Version: 6.00 Build 0)  -->
<svg version="1.1" xmlns="http://www.w3.org/2000/svg" xmlns:xlink="http://www.w3.org/1999/xlink" x="0px" y="0px"
	 viewBox="0 0 65.8 56.2" style="enable-background:new 0 0 65.8 56.2;" xml:space="preserve">
<style type="text/css">
	.st0{fill:#FF2105;}
	.st1{fill:url(#SVGID_1_);}
	.st2{fill:url(#SVGID_2_);}
	.st3{fill-rule:evenodd;clip-rule:evenodd;}
</style>
<g id="Layer_2">
</g>
<g id="Layer_1">
	<g>
		<ellipse transform="matrix(0.9603 -0.279 0.279 0.9603 -0.2752 11.0046)" class="st0" cx="38.5" cy="6.5" rx="4.2" ry="4.2"/>
		<g>
			<linearGradient id="SVGID_1_" gradientUnits="userSpaceOnUse" x1="30.3391" y1="8.7515" x2="30.3391" y2="22.0521">
				<stop  offset="0" style="stop-color:#FF2105"/>
				<stop  offset="0.362" style="stop-color:#FF2105"/>
				<stop  offset="1" style="stop-color:#000000"/>
			</linearGradient>
			<path class="st1" d="M30.1,7.9c-9-4.9-9.6,1.3-5.4,6.9c-2.7-4.3,0.7-6.2,4.3-1.4c1.2,1.6,1,3.5-0.3,6.1c0,0,0.1,0.1,0.1,0.1
				c1.3,1,2.6,2,4,3C39.6,17.5,42.1,14,30.1,7.9z"/>
			<linearGradient id="SVGID_2_" gradientUnits="userSpaceOnUse" x1="24.8103" y1="8.751" x2="24.8103" y2="22.0516">
				<stop  offset="0" style="stop-color:#FF2105"/>
				<stop  offset="0.362" style="stop-color:#FF2105"/>
				<stop  offset="1" style="stop-color:#000000"/>
			</linearGradient>
			<path class="st2" d="M27.3,21.8c-1.7,2.6-4.3,5.8-7.6,9.7c-0.5,0.6,0.2,1.3,0.7,0.8c3.3-3,6.6-5.5,9.6-7.6
				C29.1,23.7,28.2,22.8,27.3,21.8z"/>
		</g>
		<path class="st3" d="M39.7,31c4,2.2,8.6,0.8,7.2-4.3c-0.6-2.4-3.8-1.5-3.2,0.4c1.5,5.2-9.4-2.5-15.1-7.1c-2.8-2.5-4.5-5-5.7-7.1
			C25.1,20.6,33.3,27.5,39.7,31z"/>
		<g>
			<path d="M3.6,32.6h3.1v4.6h4v-4.6h3.1v12.3h-3.1V40h-4v4.9H3.6V32.6z"/>
			<path d="M19.6,35.4c3.4,0,5,2.6,5,4.9c0,2.3-1.6,4.9-5,4.9c-3.4,0-5-2.6-5-4.9C14.6,38.1,16.2,35.4,19.6,35.4z M19.6,42.6
				c1.2,0,2.2-1,2.2-2.3c0-1.3-1-2.3-2.2-2.3c-1.2,0-2.2,1-2.2,2.3C17.4,41.7,18.4,42.6,19.6,42.6z"/>
			<path d="M34.8,41.4c-0.5,2.1-2.3,3.8-4.8,3.8c-2.8,0-4.9-2.2-4.9-4.9c0-2.7,2.1-4.9,4.9-4.9c2.4,0,4.4,1.6,4.9,3.9H32
				c-0.3-0.6-0.8-1.3-2-1.3c-1.3-0.1-2.2,1-2.2,2.3c0,1.3,0.9,2.3,2.2,2.3c1.1,0,1.7-0.7,2-1.2H34.8z"/>
			<path d="M35.5,32.6h2.8v6.4h0l2.6-3.3h3.3l-3.5,4.1l3.4,5.2h-3.1l-2.6-4.4h0v4.4h-2.8V32.6z"/>
			<path d="M52.9,42c-0.4,1-1.1,1.8-1.9,2.4c-0.8,0.5-1.7,0.8-2.6,0.8c-2.6,0-4.9-2.1-4.9-4.9c0-2.6,2-5,4.8-5c2.8,0,4.9,2.2,4.9,5
				c0,0.4,0,0.5-0.1,0.7h-6.9c0.2,1.1,1.1,1.7,2.2,1.7c0.8,0,1.3-0.4,1.7-0.9H52.9z M50.4,39.3c-0.1-0.5-0.7-1.6-2.1-1.6
				c-1.4,0-2,1-2.1,1.6H50.4z"/>
			<path d="M62.3,35.7L57.6,48h-2.9l1.5-3.5l-3.4-8.8h2.9l1.8,5.4h0l1.8-5.4H62.3z"/>
		</g>
		<g>
			<path d="M41.4,47h1.5l2.6,4.2l0,0L45.4,47H47v6.6h-1.5l-2.5-4l0,0l0,4h-1.6V47z"/>
			<path d="M50.1,48.5h-1.3V47h4.3v1.5h-1.3v5.1h-1.7V48.5z"/>
		</g>
	</g>
</g>
</svg>
