<?xml version="1.0" encoding="utf-8"?>
<!-- Generator: Adobe Illustrator 21.1.0, SVG Export Plug-In . SVG Version: 6.00 Build 0)  -->
<svg version="1.1" xmlns="http://www.w3.org/2000/svg" xmlns:xlink="http://www.w3.org/1999/xlink" x="0px" y="0px"
	 viewBox="0 0 65.8 56.2" style="enable-background:new 0 0 65.8 56.2;" xml:space="preserve">
<style type="text/css">
	.st0{fill-rule:evenodd;clip-rule:evenodd;}
</style>
<g id="Layer_2">
</g>
<g id="Layer_1">
	<g>
		<g>
			<path d="M43.4,48.9c0-0.2-0.1-0.6-0.6-0.6c-0.3,0-0.6,0.2-0.6,0.5c0,0.4,0.2,0.5,1.4,1c1.2,0.6,1.5,1.1,1.5,1.9c0,1-0.6,2-2.3,2
				c-1.9,0-2.4-1.3-2.4-2.1v-0.2h1.7c0,0.8,0.5,0.9,0.7,0.9c0.4,0,0.6-0.3,0.6-0.6c0-0.4-0.3-0.5-1.3-1c-0.5-0.2-1.6-0.7-1.6-1.9
				c0-1.2,1.2-2,2.3-2c0.7,0,1.4,0.2,1.8,0.8c0.4,0.5,0.4,0.9,0.4,1.3H43.4z"/>
			<path d="M48.7,52.6l-0.3,1h-1.8l2.7-6.6h1.3l2.6,6.6h-1.8l-0.3-1H48.7z M49.1,51.2h1.4L49.8,49h0h0L49.1,51.2z"/>
		</g>
		<g>
			<path d="M3.6,32.5h3.1v4.6h4v-4.6h3.1v12.3h-3.1v-4.9h-4v4.9H3.6V32.5z"/>
			<path d="M19.6,35.3c3.4,0,5,2.6,5,4.9c0,2.3-1.6,4.9-5,4.9c-3.4,0-5-2.6-5-4.9C14.6,37.9,16.2,35.3,19.6,35.3z M19.6,42.5
				c1.2,0,2.2-1,2.2-2.3c0-1.3-1-2.3-2.2-2.3s-2.2,1-2.2,2.3C17.4,41.5,18.4,42.5,19.6,42.5z"/>
			<path d="M34.8,41.3c-0.5,2.1-2.3,3.8-4.8,3.8c-2.8,0-4.9-2.2-4.9-4.9c0-2.7,2.1-4.9,4.9-4.9c2.4,0,4.4,1.6,4.9,3.9H32
				c-0.3-0.6-0.8-1.3-2-1.3c-1.3-0.1-2.2,1-2.2,2.3c0,1.3,0.9,2.3,2.2,2.3c1.1,0,1.7-0.7,2-1.2H34.8z"/>
			<path d="M35.5,32.5h2.8v6.4h0l2.6-3.3h3.3l-3.5,4.1l3.4,5.2h-3.1l-2.6-4.4h0v4.4h-2.8V32.5z"/>
			<path d="M52.9,41.9c-0.4,1-1.1,1.8-1.9,2.4c-0.8,0.5-1.7,0.8-2.6,0.8c-2.6,0-4.9-2.1-4.9-4.9c0-2.6,2-5,4.8-5
				c2.8,0,4.9,2.2,4.9,5c0,0.4,0,0.5-0.1,0.7h-6.9c0.2,1.1,1.1,1.7,2.2,1.7c0.8,0,1.3-0.4,1.7-0.9H52.9z M50.4,39.2
				c-0.1-0.5-0.7-1.6-2.1-1.6s-2,1-2.1,1.6H50.4z"/>
			<path d="M62.2,35.6l-4.6,12.3h-2.9l1.5-3.5l-3.4-8.8h2.9l1.8,5.4h0l1.8-5.4H62.2z"/>
		</g>
		<g>
			<path d="M24.7,14.6C24.7,14.6,24.7,14.6,24.7,14.6C24.7,14.6,24.7,14.6,24.7,14.6L24.7,14.6z"/>
			<g>
				<path d="M24.7,14.6C24.7,14.6,24.7,14.6,24.7,14.6C24.7,14.6,24.7,14.6,24.7,14.6L24.7,14.6z"/>
				<ellipse transform="matrix(0.9603 -0.2789 0.2789 0.9603 -0.2409 10.9956)" cx="38.5" cy="6.3" rx="4.2" ry="4.2"/>
				<g>
					<path d="M30.1,7.7c-9-4.9-9.6,1.3-5.4,6.9c-2.7-4.3,0.7-6.2,4.3-1.4c1.2,1.6,1,3.5-0.3,6.1c0,0,0.1,0.1,0.1,0.1
						c1.3,1,2.6,2,4,3C39.6,17.3,42.1,13.9,30.1,7.7z"/>
					<path d="M27.3,21.6c-1.7,2.6-4.3,5.8-7.6,9.7c-0.5,0.6,0.2,1.3,0.7,0.8c3.3-3,6.6-5.5,9.6-7.6C29.1,23.6,28.2,22.6,27.3,21.6z"
						/>
				</g>
				<path class="st0" d="M39.7,30.9c4,2.2,8.6,0.8,7.2-4.3c-0.6-2.4-3.8-1.5-3.2,0.4c1.5,5.2-9.4-2.5-15.1-7.1
					c-2.8-2.5-4.5-5-5.7-7.1C25.1,20.5,33.3,27.4,39.7,30.9z"/>
			</g>
		</g>
	</g>
</g>
</svg>
