<?xml version="1.0" encoding="utf-8"?>
<!-- Generator: Adobe Illustrator 21.1.0, SVG Export Plug-In . SVG Version: 6.00 Build 0)  -->
<svg version="1.1" xmlns="http://www.w3.org/2000/svg" xmlns:xlink="http://www.w3.org/1999/xlink" x="0px" y="0px"
	 viewBox="0 0 21.1 27.7" style="enable-background:new 0 0 21.1 27.7;" xml:space="preserve">
<style type="text/css">
	.st0{fill:#6F6F6D;}
</style>
<g id="Layer_2">
</g>
<g id="Layer_1">
	<path class="st0" d="M99.8,23.2C99.8,23.2,99.8,23.2,99.8,23.2c-0.1,3.5-0.1,7-0.1,10.6"/>
	<g>
		<path class="st0" d="M9.2,18.6c-0.1-0.7-0.3-1.4-0.4-2.1c-0.4-2-0.9-4-1.3-6.1c0-0.1,0-0.1,0-0.2c0.5-0.1,1-0.1,1.5-0.2
			c1.3-0.1,2.7-0.1,4,0.1c1.6,0.2,3.2,0.6,4.6,1.5c1.6,1.1,2.4,2.6,2.6,4.5c0.1,1.7,0.1,3.4,0.1,5.1c0,1.8,0,3.7,0,5.5
			c0,0.1,0,0.2,0,0.3c-1,0-1.9,0-2.9,0c0-0.1,0-0.1,0-0.2c-0.1-1.6-0.1-3.3-0.2-4.9c-0.1-1.5-0.3-3-0.8-4.5
			c-0.1-0.3-0.3-0.6-0.4-0.9c0,0-0.1,0-0.1,0c0,3.5,0,7,0,10.5c-3.4,0-6.7,0-10.1,0c0-1,0-2.1,0-3.2c0.2,0,0.4,0,0.6,0
			c1.7,0,3.4,0,5.1,0c1.2,0,2.2-0.8,2.5-2c0.4-1.6-0.8-3.1-2.3-3.2C10.7,18.6,9.9,18.6,9.2,18.6L9.2,18.6z"/>
		<path class="st0" d="M8.4,19.7c0.1,0.5,0.2,1.1,0.3,1.6c0.1,0.4,0.2,0.9,0.3,1.3c-0.3,0-0.5,0-0.7,0c-2.1,0-4.2,0-6.3,0
			c-0.6,0-0.9-0.2-0.9-0.9c0-1.8,0-3.5,0-5.3C1.2,13.9,2.5,12,4.8,11c0.5-0.2,1-0.4,1.5-0.6c0.6,2.7,1.2,5.4,1.8,8.1
			c-0.8,0-1.7,0-2.5,0c0-0.7,0-1.4,0-2.1c-0.6,0.4-1.4,2.3-1.4,3.3c0.1,0,0.2,0,0.3,0c1.2,0,2.4,0,3.6,0C8.2,19.7,8.3,19.7,8.4,19.7
			L8.4,19.7z"/>
		<path class="st0" d="M6.5,4.8c0-2.3,1.8-4.1,4.1-4.1c2.3,0,4.1,1.8,4.1,4.1c0,2.2-1.8,4.1-4.1,4.1C8.3,8.9,6.5,7.1,6.5,4.8z"/>
		<path class="st0" d="M9.4,19.8c0.7,0,1.4,0,2.1,0c0.7,0,1.2,0.8,1.3,1.6c0,0.8-0.5,1.5-1.3,1.6c-0.5,0.1-0.9,0-1.4,0
			C9.9,21.9,9.7,20.9,9.4,19.8z"/>
		<path class="st0" d="M8.4,19.7c-0.1-0.4-0.2-0.7-0.3-1.1c0.4,0,0.7,0,1.1,0l0,0c0.1,0.4,0.2,0.7,0.2,1.1C9,19.7,8.7,19.7,8.4,19.7
			L8.4,19.7z"/>
	</g>
</g>
</svg>
